…
    ## ── Column specification ────────────────────────────────────────────────────────
    ## Delimiter: ","
    ## chr  (1): application_number
    ## dbl  (2): ego_examiner_id, alter_examiner_id
    ## date (1): advice_date

    ## 
    ## ℹ Use `spec()` to retrieve the full column specification for this data.
    ## ℹ Specify the column types or set `show_col_types = FALSE` to quiet this message.

``` r
applications
```

    ## # A tibble: 2,018,477 × 16
    ##    application_number filing_date examiner_name_last examiner_name_first
    ##    <chr>              <date>      <chr>              <chr>              
    ##  1 08284457           2000-01-26  HOWARD             JACQUELINE         
    ##  2 08413193           2000-10-11  YILDIRIM           BEKIR              
    ##  3 08531853           2000-05-17  HAMILTON           CYNTHIA            
    ##  4 08637752           2001-07-20  MOSHER             MARY               
    ##  5 08682726           2000-04-10  BARR               MICHAEL            
    ##  6 08687412           2000-04-28  GRAY               LINDA              
    ##  7 08716371           2004-01-26  MCMILLIAN          KARA               
    ##  8 08765941           2000-06-23  FORD               VANESSA            
    ##  9 08776818           2000-02-04  STRZELECKA         TERESA             
    ## 10 08809677           2002-02-20  KIM                SUN                
    ## # … with 2,018,467 more rows, and 12 more variables:
    ## #   examiner_name_middle <chr>, examiner_id <dbl>, examiner_art_unit <dbl>,
    ## #   uspc_class <chr>, uspc_subclass <chr>, patent_number <chr>,
    ## #   patent_issue_date <date>, abandon_date <date>, disposal_type <chr>,
    ## #   appl_status_code <dbl>, appl_status_date <chr>, tc <dbl>

``` r
edges
```

    ## # A tibble: 32,906 × 4
    ##    application_number advice_date ego_examiner_id alter_examiner_id
    ##    <chr>              <date>                <dbl>             <dbl>
    ##  1 09402488           2008-11-17            84356             66266
    ##  2 09402488           2008-11-17            84356             63519
    ##  3 09402488           2008-11-17            84356             98531
    ##  4 09445135           2008-08-21            92953             71313
    ##  5 09445135           2008-08-21            92953             93865
    ##  6 09445135           2008-08-21            92953             91818
    ##  7 09479304           2008-12-15            61767             69277
    ##  8 09479304           2008-12-15            61767             92446
    ##  9 09479304           2008-12-15            61767             66805
    ## 10 09479304           2008-12-15            61767             70919
    ## # … with 32,896 more rows
…
``` r
library(gender)
#install_genderdata_package() # only run this line the first time you use the package, to get data for it
# get a list of first names without repetitions
examiner_names <- applications %>% 
  distinct(examiner_name_first)
examiner_names
```

    ## # A tibble: 2,595 × 1
    ##    examiner_name_first
    ##    <chr>              
    ##  1 JACQUELINE         
    ##  2 BEKIR              
    ##  3 CYNTHIA            
    ##  4 MARY               
    ##  5 MICHAEL            
    ##  6 LINDA              
    ##  7 KARA               
    ##  8 VANESSA            
    ##  9 TERESA             
    ## 10 SUN                
    ## # … with 2,585 more rows
…
``` r
# get a table of names and gender
examiner_names_gender <- examiner_names %>% 
  do(results = gender(.$examiner_name_first, method = "ssa")) %>% 
  unnest(cols = c(results), keep_empty = TRUE) %>% 
  select(
    examiner_name_first = name,
    gender,
    proportion_female
  )
examiner_names_gender
```

    ## # A tibble: 1,822 × 3
    ##    examiner_name_first gender proportion_female
    ##    <chr>               <chr>              <dbl>
    ##  1 AARON               male              0.0082
    ##  2 ABDEL               male              0     
    ##  3 ABDOU               male              0     
    ##  4 ABDUL               male              0     
    ##  5 ABDULHAKIM          male              0     
    ##  6 ABDULLAH            male              0     
    ##  7 ABDULLAHI           male              0     
    ##  8 ABIGAIL             female            0.998 
    ##  9 ABIMBOLA            female            0.944 
    ## 10 ABRAHAM             male              0.0031
    ## # … with 1,812 more rows
…
### Guess the examiner’s race

We’ll now use package `wru` to estimate likely race of an examiner. Just
like with gender, we’ll get a list of unique names first, only now we
are using surnames.

``` r
library(wru)
examiner_surnames <- applications %>% 
  select(surname = examiner_name_last) %>% 
  distinct()
examiner_surnames
```

    ## # A tibble: 3,806 × 1
    ##    surname   
    ##    <chr>     
    ##  1 HOWARD    
    ##  2 YILDIRIM  
    ##  3 HAMILTON  
    ##  4 MOSHER    
    ##  5 BARR      
    ##  6 GRAY      
    ##  7 MCMILLIAN 
    ##  8 FORD      
    ##  9 STRZELECKA
    ## 10 KIM       
    ## # … with 3,796 more rows
…
``` r
examiner_race <- predict_race(voter.file = examiner_surnames, surname.only = T) %>% 
  as_tibble()
```

    ## [1] "Proceeding with surname-only predictions..."

    ## Warning in merge_surnames(voter.file): Probabilities were imputed for 698
    ## surnames that could not be matched to Census list.

``` r
examiner_race
```

    ## # A tibble: 3,806 × 6
    ##    surname    pred.whi pred.bla pred.his pred.asi pred.oth
    ##    <chr>         <dbl>    <dbl>    <dbl>    <dbl>    <dbl>
    ##  1 HOWARD       0.643   0.295    0.0237   0.005     0.0333
    ##  2 YILDIRIM     0.861   0.0271   0.0609   0.0135    0.0372
    ##  3 HAMILTON     0.702   0.237    0.0245   0.0054    0.0309
    ##  4 MOSHER       0.947   0.00410  0.0241   0.00640   0.0185
    ##  5 BARR         0.827   0.117    0.0226   0.00590   0.0271
    ##  6 GRAY         0.687   0.251    0.0241   0.0054    0.0324
    ##  7 MCMILLIAN    0.359   0.574    0.0189   0.00260   0.0463
    ##  8 FORD         0.620   0.32     0.0237   0.0045    0.0313
    ##  9 STRZELECKA   0.666   0.0853   0.137    0.0797    0.0318
    ## 10 KIM          0.0252  0.00390  0.00650  0.945     0.0198
    ## # … with 3,796 more rows
…
``` r
examiner_race <- examiner_race %>% 
  mutate(max_race_p = pmax(pred.asi, pred.bla, pred.his, pred.oth, pred.whi)) %>% 
  mutate(race = case_when(
    max_race_p == pred.asi ~ "Asian",
    max_race_p == pred.bla ~ "black",
    max_race_p == pred.his ~ "Hispanic",
    max_race_p == pred.oth ~ "other",
    max_race_p == pred.whi ~ "white",
    TRUE ~ NA_character_
  ))
examiner_race
```

    ## # A tibble: 3,806 × 8
    ##    surname    pred.whi pred.bla pred.his pred.asi pred.oth max_race_p race 
    ##    <chr>         <dbl>    <dbl>    <dbl>    <dbl>    <dbl>      <dbl> <chr>
    ##  1 HOWARD       0.643   0.295    0.0237   0.005     0.0333      0.643 white
    ##  2 YILDIRIM     0.861   0.0271   0.0609   0.0135    0.0372      0.861 white
    ##  3 HAMILTON     0.702   0.237    0.0245   0.0054    0.0309      0.702 white
    ##  4 MOSHER       0.947   0.00410  0.0241   0.00640   0.0185      0.947 white
    ##  5 BARR         0.827   0.117    0.0226   0.00590   0.0271      0.827 white
    ##  6 GRAY         0.687   0.251    0.0241   0.0054    0.0324      0.687 white
    ##  7 MCMILLIAN    0.359   0.574    0.0189   0.00260   0.0463      0.574 black
    ##  8 FORD         0.620   0.32     0.0237   0.0045    0.0313      0.620 white
    ##  9 STRZELECKA   0.666   0.0853   0.137    0.0797    0.0318      0.666 white
    ## 10 KIM          0.0252  0.00390  0.00650  0.945     0.0198      0.945 Asian
    ## # … with 3,796 more rows
…
``` r
library(lubridate) # to work with dates
examiner_dates <- applications %>% 
  select(examiner_id, filing_date, appl_status_date) 
examiner_dates
```

    ## # A tibble: 2,018,477 × 3
    ##    examiner_id filing_date appl_status_date  
    ##          <dbl> <date>      <chr>             
    ##  1       96082 2000-01-26  30jan2003 00:00:00
    ##  2       87678 2000-10-11  27sep2010 00:00:00
    ##  3       63213 2000-05-17  30mar2009 00:00:00
    ##  4       73788 2001-07-20  07sep2009 00:00:00
    ##  5       77294 2000-04-10  19apr2001 00:00:00
    ##  6       68606 2000-04-28  16jul2001 00:00:00
    ##  7       89557 2004-01-26  15may2017 00:00:00
    ##  8       97543 2000-06-23  03apr2002 00:00:00
    ##  9       98714 2000-02-04  27nov2002 00:00:00
    ## 10       65530 2002-02-20  23mar2009 00:00:00
    ## # … with 2,018,467 more rows
…
``` r
examiner_dates <- examiner_dates %>% 
  group_by(examiner_id) %>% 
  summarise(
    earliest_date = min(start_date, na.rm = TRUE), 
    latest_date = max(end_date, na.rm = TRUE),
    tenure_days = interval(earliest_date, latest_date) %/% days(1)
    ) %>% 
  filter(year(latest_date)<2018)
examiner_dates
```

    ## # A tibble: 5,625 × 4
    ##    examiner_id earliest_date latest_date tenure_days
    ##          <dbl> <date>        <date>            <dbl>
    ##  1       59012 2004-07-28    2015-07-24         4013
    ##  2       59025 2009-10-26    2017-05-18         2761
    ##  3       59030 2005-12-12    2017-05-22         4179
    ##  4       59040 2007-09-11    2017-05-23         3542
    ##  5       59052 2001-08-21    2007-02-28         2017
    ##  6       59054 2000-11-10    2016-12-23         5887
    ##  7       59055 2004-11-02    2007-12-26         1149
    ##  8       59056 2000-03-24    2017-05-22         6268
    ##  9       59074 2000-01-31    2017-03-17         6255
    ## 10       59081 2011-04-21    2017-05-19         2220
    ## # … with 5,615 more rows
…
``` r
# create node list
ego <- select(network, c("ego_examiner_id","ego_examiner_wg","ego_examiner_au")) %>%
    dplyr::rename(id=ego_examiner_id, wg=ego_examiner_wg, au=ego_examiner_au)
alter <- select(network, c("alter_examiner_id","alter_examiner_wg","alter_examiner_au")) %>%
  dplyr::rename(id=alter_examiner_id, wg=alter_examiner_wg, au=alter_examiner_au)
nodes <- rbind(ego, alter) %>%
  distinct() %>%
  drop_na() #112

nodes
```

    ## # A tibble: 112 × 3
    ##       id    wg    au
    ##    <dbl> <dbl> <dbl>
    ##  1 85308  2450  2457
    ##  2 88496  2450  2457
    ##  3 75919  2450  2451
    ##  4 75973  2450  2453
    ##  5 66685  2450  2457
    ##  6 84860  2450  2457
    ##  7 95938  2450  2454
    ##  8 99654  2450  2452
    ##  9 90049  2450  2456
    ## 10 65885  2450  2457
    ## # … with 102 more rows
…
``` r
applications %>% 
  filter(examiner_id==75612) # asian male from 2001
```

    ## # A tibble: 298 × 23
    ##    application_number filing_date examiner_name_last examiner_name_first
    ##    <chr>              <date>      <chr>              <chr>              
    ##  1 10016529           2001-12-10  TRAN               NAM                
    ##  2 10531791           2005-10-04  TRAN               NAM                
    ##  3 10570437           2006-03-02  TRAN               NAM                
    ##  4 11102355           2005-04-08  TRAN               NAM                
    ##  5 11117851           2005-04-29  TRAN               NAM                
    ##  6 11118154           2005-04-29  TRAN               NAM                
    ##  7 11210904           2005-08-25  TRAN               NAM                
    ##  8 11257009           2005-10-25  TRAN               NAM                
    ##  9 11291897           2005-12-02  TRAN               NAM                
    ## 10 11305415           2005-12-16  TRAN               NAM                
    ## # … with 288 more rows, and 19 more variables: examiner_name_middle <chr>,
    ## #   examiner_id <dbl>, examiner_art_unit <dbl>, uspc_class <chr>,
    ## #   uspc_subclass <chr>, patent_number <chr>, patent_issue_date <date>,
    ## #   abandon_date <date>, disposal_type <chr>, appl_status_code <dbl>,
    ## #   appl_status_date <chr>, tc <dbl>, gender <chr>, race <chr>,
    ## #   earliest_date <date>, latest_date <date>, tenure_days <dbl>, wg <dbl>,
    ## #   period <chr>
…
``` r
applications %>% 
  filter(examiner_id==60415) # asian male from 2003
```

    ## # A tibble: 279 × 23
    ##    application_number filing_date examiner_name_last examiner_name_first
    ##    <chr>              <date>      <chr>              <chr>              
    ##  1 10582381           2006-06-09  NAJEE-ULLAH        TARIQ              
    ##  2 10635587           2003-08-06  NAJEE-ULLAH        TARIQ              
    ##  3 10655088           2003-09-03  NAJEE-ULLAH        TARIQ              
    ##  4 10655167           2003-09-04  NAJEE-ULLAH        TARIQ              
    ##  5 10655324           2003-09-04  NAJEE-ULLAH        TARIQ              
    ##  6 10655371           2003-09-04  NAJEE-ULLAH        TARIQ              
    ##  7 10719282           2003-11-20  NAJEE-ULLAH        TARIQ              
    ##  8 10719375           2003-11-21  NAJEE-ULLAH        TARIQ              
    ##  9 10754631           2004-01-12  NAJEE-ULLAH        TARIQ              
    ## 10 10755401           2004-01-13  NAJEE-ULLAH        TARIQ              
    ## # … with 269 more rows, and 19 more variables: examiner_name_middle <chr>,
    ## #   examiner_id <dbl>, examiner_art_unit <dbl>, uspc_class <chr>,
    ## #   uspc_subclass <chr>, patent_number <chr>, patent_issue_date <date>,
    ## #   abandon_date <date>, disposal_type <chr>, appl_status_code <dbl>,
    ## #   appl_status_date <chr>, tc <dbl>, gender <chr>, race <chr>,
    ## #   earliest_date <date>, latest_date <date>, tenure_days <dbl>, wg <dbl>,
    ## #   period <chr>

``` r
applications %>% 
  filter(examiner_id==80925) # asian male from 2002
```

    ## # A tibble: 387 × 23
    ##    application_number filing_date examiner_name_last examiner_name_first
    ##    <chr>              <date>      <chr>              <chr>              
    ##  1 10109575           2002-03-27  HASAN              SYED               
    ##  2 10129318           2002-05-06  HASAN              SYED               
    ##  3 10129878           2002-09-27  HASAN              SYED               
    ##  4 10133184           2002-04-26  HASAN              SYED               
    ##  5 10174384           2002-06-18  HASAN              SYED               
    ##  6 10432227           2003-05-22  HASAN              SYED               
    ##  7 10445252           2003-05-27  HASAN              SYED               
    ##  8 10446853           2003-05-29  HASAN              SYED               
    ##  9 10500401           2005-02-02  HASAN              SYED               
    ## 10 10501543           2004-11-12  HASAN              SYED               
    ## # … with 377 more rows, and 19 more variables: examiner_name_middle <chr>,
    ## #   examiner_id <dbl>, examiner_art_unit <dbl>, uspc_class <chr>,
    ## #   uspc_subclass <chr>, patent_number <chr>, patent_issue_date <date>,
    ## #   abandon_date <date>, disposal_type <chr>, appl_status_code <dbl>,
    ## #   appl_status_date <chr>, tc <dbl>, gender <chr>, race <chr>,
    ## #   earliest_date <date>, latest_date <date>, tenure_days <dbl>, wg <dbl>,
    ## #   period <chr>
…
    ## # A tibble: 3 × 8
    ##   application_number advice_date ego_examiner_id alter_examiner_… ego_examiner_wg
    ##   <chr>              <date>                <dbl>            <dbl>           <dbl>
    ## 1 11336266           2008-12-08            68791            60130            2450
    ## 2 11350055           2008-12-04            68791            68791            2450
    ## 3 11352315           2008-10-23            68791            68791            2450
    ## # … with 3 more variables: ego_examiner_au <dbl>, alter_examiner_wg <dbl>,
    ## #   alter_examiner_au <dbl>

``` r
applications %>% 
  filter(examiner_id==60130) # black male from 2001, change tc in 2007
```

    ## # A tibble: 647 × 23
    ##    application_number filing_date examiner_name_last examiner_name_first
    ##    <chr>              <date>      <chr>              <chr>              
    ##  1 09230640           2000-06-07  COBY               FRANTZ             
    ##  2 09479668           2000-01-10  COBY               FRANTZ             
    ##  3 09479669           2000-01-10  COBY               FRANTZ             
    ##  4 09480190           2000-01-10  COBY               FRANTZ             
    ##  5 09493435           2000-01-29  COBY               FRANTZ             
    ##  6 09512125           2000-02-24  COBY               FRANTZ             
    ##  7 09517131           2000-03-02  COBY               FRANTZ             
    ##  8 09519016           2000-03-03  COBY               FRANTZ             
    ##  9 09522678           2000-03-10  COBY               FRANTZ             
    ## 10 09523168           2000-03-10  COBY               FRANTZ             
    ## # … with 637 more rows, and 19 more variables: examiner_name_middle <chr>,
    ## #   examiner_id <dbl>, examiner_art_unit <dbl>, uspc_class <chr>,
    ## #   uspc_subclass <chr>, patent_number <chr>, patent_issue_date <date>,
    ## #   abandon_date <date>, disposal_type <chr>, appl_status_code <dbl>,
    ## #   appl_status_date <chr>, tc <dbl>, gender <chr>, race <chr>,
    ## #   earliest_date <date>, latest_date <date>, tenure_days <dbl>, wg <dbl>,
    ## #   period <chr>

``` r
applications %>% 
  filter(examiner_id==68791) # white male from 2009
```

    ## # A tibble: 152 × 23
    ##    application_number filing_date examiner_name_last examiner_name_first
    ##    <chr>              <date>      <chr>              <chr>              
    ##  1 11336223           2006-01-20  MURPHY             CHARLES            
    ##  2 11336266           2006-01-20  MURPHY             CHARLES            
    ##  3 11336457           2006-01-20  MURPHY             CHARLES            
    ##  4 11336878           2006-01-23  MURPHY             CHARLES            
    ##  5 11338539           2006-01-23  MURPHY             CHARLES            
    ##  6 11341833           2006-01-27  MURPHY             CHARLES            
    ##  7 11341918           2006-01-27  MURPHY             CHARLES            
    ##  8 11341934           2006-01-26  MURPHY             CHARLES            
    ##  9 11342018           2006-01-27  MURPHY             CHARLES            
    ## 10 11345415           2006-02-01  MURPHY             CHARLES            
    ## # … with 142 more rows, and 19 more variables: examiner_name_middle <chr>,
    ## #   examiner_id <dbl>, examiner_art_unit <dbl>, uspc_class <chr>,
    ## #   uspc_subclass <chr>, patent_number <chr>, patent_issue_date <date>,
    ## #   abandon_date <date>, disposal_type <chr>, appl_status_code <dbl>,
    ## #   appl_status_date <chr>, tc <dbl>, gender <chr>, race <chr>,
    ## #   earliest_date <date>, latest_date <date>, tenure_days <dbl>, wg <dbl>,
    ## #   period <chr>
…
